{
  "results": [
    {
      "id": "a1b2c3d4",
      "name": "Pro Action Camera",
      "description": "The best camera for professional photographers.",
      "price": {
        "fullPrice": 100,
        "discountPrice": 90,
        "discountPercentage": 10,
        "discountFrom": "2024-01-01T00:00:00Z",
        "discountUntil": "2024-01-01T00:00:00Z"
      },
      "images": [
        "https://nextui.org/images/card-example-6.jpeg",
        "https://nextui.org/images/card-example-5.jpeg",
        "https://nextui.org/images/card-example-4.jpeg"
      ],
      "categories": ["Electronics", "Portable Electronics", "Digital Cameras", "Action Cameras"],
      "inStock": { "storeRef": { "id": "storeA_id", "name": "store1" }, "quantity": 1 },
      "updatedAt": "2024-01-01T00:00:00Z",
      "createdAt": "2024-01-01T00:00:00Z"
    },
    {
      "id": "b2c3d4e5",
      "name": "Smartphone",
      "description": "The best smartphone for everyone.",
      "price": {
        "fullPrice": 200,
        "discountPrice": 180,
        "discountPercentage": 10,
        "discountFrom": "2024-01-01T00:00:00Z",
        "discountUntil": "2024-01-01T00:00:00Z"
      },
      "images": [
        "https://nextui.org/images/card-example-3.jpeg",
        "https://nextui.org/images/card-example-2.jpeg",
        "https://nextui.org/images/card-example-1.jpeg"
      ],
      "categories": ["Electronics", "Mobile Phones", "Smartphones"],
      "inStock": 1,
      "updatedAt": "2024-01-01T00:00:00Z",
      "createdAt": "2024-01-01T00:00:00Z"
    },
    {
      "id": "c3d4e5f6",
      "name": "Laptop",
      "description": "The best laptop for developers.",
      "price": {
        "fullPrice": 300,
        "discountPrice": 270,
        "discountPercentage": 10,
        "discountFrom": "2024-01-01T00:00:00Z",
        "discountUntil": "2024-01-01T00:00:00Z"
      },
      "images": [
        "https://nextui.org/images/card-example-9.jpeg",
        "https://nextui.org/images/card-example-8.jpeg",
        "https://nextui.org/images/card-example-7.jpeg"
      ],
      "categories": ["Electronics", "Computers", "Laptops"],
      "inStock": 1,
      "updatedAt": "2024-01-01T00:00:00Z",
      "createdAt": "2024-01-01T00:00:00Z"
    },
    {
      "id": "d4e5f6g7",
      "name": "Tablet",
      "description": "The best tablet for reading books.",
      "price": {
        "fullPrice": 400,
        "discountPrice": 360,
        "discountPercentage": 10,
        "discountFrom": "2024-01-01T00:00:00Z",
        "discountUntil": "2024-01-01T00:00:00Z"
      },
      "images": [
        "https://nextui.org/images/card-example-12.jpeg",
        "https://nextui.org/images/card-example-11.jpeg",
        "https://nextui.org/images/card-example-10.jpeg"
      ],
      "categories": ["Electronics", "Portable Electronics", "Tablets"],
      "inStock": 1,
      "updatedAt": "2024-01-01T00:00:00Z",
      "createdAt": "2024-01-01T00:00:00Z"
    },
    {
      "id": "e5f6g7h8",
      "name": "Smartwatch",
      "description": "The best smartwatch for tracking your health.",
      "price": {
        "fullPrice": 500,
        "discountPrice": 450,
        "discountPercentage": 10,
        "discountFrom": "2024-01-01T00:00:00Z",
        "discountUntil": "2024-01-01T00:00:00Z"
      },
      "images": [
        "https://nextui.org/images/card-example-15.jpeg",
        "https://nextui.org/images/card-example-14.jpeg",
        "https://nextui.org/images/card-example-13.jpeg"
      ],
      "categories": ["Electronics", "Portable Electronics", "Wearables & Gadgets", "Smart Watches"],
      "inStock": 1,
      "updatedAt": "2024-01-01T00:00:00Z",
      "createdAt": "2024-01-01T00:00:00Z"
    },
    {
      "id": "f6g7h8i9",
      "name": "Headphones",
      "description": "The best headphones for listening to music.",
      "price": {
        "fullPrice": 600,
        "discountPrice": 540,
        "discountPercentage": 10,
        "discountFrom": "2024-01-01T00:00:00Z",
        "discountUntil": "2024-01-01T00:00:00Z"
      },
      "images": [
        "https://nextui.org/images/card-example-18.jpeg",
        "https://nextui.org/images/card-example-17.jpeg",
        "https://nextui.org/images/card-example-16.jpeg"
      ],
      "categories": ["Electronics", "Portable Electronics", "Headphones"],
      "inStock": 1,
      "updatedAt": "2024-01-01T00:00:00Z",
      "createdAt": "2024-01-01T00:00:00Z"
    },
    {
      "id": "g7h8i9j0",
      "name": "Speaker",
      "description": "The best speaker for listening to music.",
      "price": {
        "fullPrice": 700,
        "discountPrice": 630,
        "discountPercentage": 10,
        "discountFrom": "2024-01-01T00:00:00Z",
        "discountUntil": "2024-01-01T00:00:00Z"
      },
      "images": [
        "https://nextui.org/images/card-example-21.jpeg",
        "https://nextui.org/images/card-example-20.jpeg",
        "https://nextui.org/images/card-example-19.jpeg"
      ],
      "categories": ["Electronics", "Portable Electronics", "Speakers"],
      "inStock": 1,
      "updatedAt": "2024-01-01T00:00:00Z",
      "createdAt": "2024-01-01T00:00:00Z"
    },
    {
      "id": "h8i9j0k1",
      "name": "Smart Ring",
      "description": "The best smart ring for tracking your health.",
      "price": {
        "fullPrice": 800,
        "discountPrice": 720,
        "discountPercentage": 10,
        "discountFrom": "2024-01-01T00:00:00Z",
        "discountUntil": "2024-01-01T00:00:00Z"
      },
      "images": [
        "https://nextui.org/images/card-example-24.jpeg",
        "https://nextui.org/images/card-example-23.jpeg",
        "https://nextui.org/images/card-example-22.jpeg"
      ],
      "categories": ["Electronics", "Portable Electronics", "Wearables & Gadgets", "Smart Rings"],
      "inStock": 1,
      "updatedAt": "2024-01-01T00:00:00Z",
      "createdAt": "2024-01-01T00:00:00Z"
    }
  ],
  "page": 1,
  "totalPages": 10,
  "totalResults": 100
}
